…
> head(transmute(flights, new_col = arr_delay-dep_delay))
# A tibble: 6 x 1
new_col
<dbl>
  1       9
2      16
3      31
4     -17

# summarise()
You can use summarise() to quickly collapse data frames into single rows using functions that aggregate results. Remember to use na.rm=TRUE to remove NA values.
library(nycflights13)
head(flights$arr_time)
> flights[, "arr_time"]
# A tibble: 336,776 x 1
arr_time
<int>
  1      830
2      850
3      923
4     1004
5      812
6      740
7      913
8      709
9      838
10      753
# ... with 336,766 more rows
…
